Final
…
## Source: local data frame [4,500 x 5]
## Groups: <by row>
## 
## # A tibble: 4,500 x 5
##    cohort par_frac0 cohort_mean income_bracket probability_exceed
##     <int>     <dbl>       <dbl>          <dbl>              <dbl>
##  1   1940     0.043       0.915              1              0.946
##  2   1941     0.09        0.891              1              0.923
##  3   1942     0.085       0.896              1              0.923
##  4   1943     0.083       0.888              1              0.921
##  5   1944     0.079       0.899              1              0.929
##  6   1945     0.076       0.864              1              0.921
##  7   1946     0.072       0.858              1              0.912
##  8   1947     0.062       0.840              1              0.902
##  9   1948     0.055       0.821              1              0.898
## 10   1949     0.05        0.796              1              0.895
## # ... with 4,490 more rows
